<svg xmlns="http://www.w3.org/2000/svg" width="21" height="36" viewBox="0 0 21 36">
  <g id="Group_1544" data-name="Group 1544" transform="translate(-758 -651)">
    <g id="Group_55" data-name="Group 55" transform="translate(-97 97.8)">
      <g id="Rectangle_61" data-name="Rectangle 61" transform="translate(855 553.2)" fill="#fff" stroke="#020303" stroke-width="1">
        <rect width="21" height="36" rx="10.5" stroke="none"/>
        <rect x="0.5" y="0.5" width="20" height="35" rx="10" fill="none"/>
      </g>
      <g id="Ellipse_17" data-name="Ellipse 17" transform="translate(862 560.2)" fill="#fff" stroke="#020303" stroke-width="1">
        <circle cx="3.5" cy="3.5" r="3.5" stroke="none"/>
        <circle cx="3.5" cy="3.5" r="3" fill="none"/>
      </g>
    </g>
  </g>
</svg>
