<?xml version="1.0"?>
<svg xmlns="http://www.w3.org/2000/svg" width="273.342" height="207.722" viewBox="0 0 273.342 207.722">
  <g id="Group_1544" data-name="Group 1544" transform="translate(-38.835 -742)">
    <g id="Group_1504" data-name="Group 1504" transform="translate(-95 -112.557)">
      <g id="Group_1477" data-name="Group 1477" transform="translate(-449.404 -719.405)">
        <path id="Path_2353" data-name="Path 2353" d="M211.27,392.564H44.178l20.763-47.192H190.507Z" transform="translate(573.132 1388.621)" fill="none" stroke="#d5d5d5" stroke-miterlimit="10" stroke-width="1" stroke-dasharray="10 4"/>
        <rect id="Rectangle_96" data-name="Rectangle 96" width="77.711" height="9.432" transform="translate(763.457 1706.434)" fill="none" stroke="#818181" stroke-width="1"/>
        <path id="Path_3277" data-name="Path 3277" d="M0,0H77.711V110.009H0Z" transform="translate(763.457 1596.425)" fill="#fff" stroke="#818181" stroke-width="1"/>
        <path id="Path_3255" data-name="Path 3255" d="M0,0H67.129V99.427H0Z" transform="translate(768.748 1601.717)" fill="#fff" stroke="#818181" stroke-width="1"/>
        <path id="Path_2356" data-name="Path 2356" stroke="#e74c3c" d="M196.769,117.244l-60.93.167a16.256,16.256,0,0,0-16.48,16.022h0a16.255,16.255,0,0,1-16.48,16.022H94.612c-9.1,0-16.48,4.466-16.48,13.315h0" fill="none" transform="translate(574.834 1496.036)" stroke-linecap="round" stroke-linejoin="round" stroke-width="1" stroke-dasharray="10 4"/>
        <path id="Path_2360" data-name="Path 2360" stroke="#f3dc19" d="M199.459,158.591l-110.514.1c-15.361,0-27.813,11.3-27.813,25.24v68.822" fill="none" transform="translate(573.352 1476.584)" stroke-linecap="round" stroke-linejoin="round" stroke-width="1" stroke-dasharray="10 4"/>
        <path id="Path_2361" data-name="Path 2361" stroke="#3498db" d="M308.4,308.238h63.049a8.5,8.5,0,0,0,8.5-8.5h0a8.5,8.5,0,0,0-8.5-8.5H336.832a8.05,8.05,0,0,1-8.05-8.05h0a8.05,8.05,0,0,1,8.05-8.05h16.414a14.372,14.372,0,0,0,14.371-14.372v-2.036" fill="none" transform="translate(463.869 1434.093)" stroke-linecap="round" stroke-linejoin="round" stroke-width="1" stroke-dasharray="10 4"/>
        <path id="Rectangle_149" data-name="Rectangle 149" d="M6.459,0h98.183A6.459,6.459,0,0,1,111.1,6.459V69.1a0,0,0,0,1,0,0H0a0,0,0,0,1,0,0V6.459A6.459,6.459,0,0,1,6.459,0Z" transform="translate(645.305 1659.119)" fill="#fff" stroke="#818181" stroke-width="1"/>
        <path id="Path_2365" data-name="Path 2365" d="M210.221,376.2H62.379L80.75,334.446h111.1Z" transform="translate(564.555 1393.769)" fill="#fff" stroke="#818181" stroke-width="1"/>
        <path id="Path_2366" data-name="Path 2366" d="M206.33,417.234H65.813c-2.952,0-4.583-1.734-3.663-3.825H209.993C210.913,415.5,209.282,417.234,206.33,417.234Z" transform="translate(564.784 1356.562)" fill="#fff" stroke="#818181" stroke-width="1"/>
        <path id="Path_2367" data-name="Path 2367" d="M208.637,369.15H89.9l10.312-27.356h98.118Z" transform="translate(551.59 1390.307)" fill="#fff" stroke="#818181" stroke-width="1"/>
        <g id="Group_670" data-name="Group 670" transform="translate(650.006 1735.39)">
          <g id="Group_647" data-name="Group 647" transform="translate(5.08)">
            <path id="Path_2368" data-name="Path 2368" d="M115.615,352.24h7.438l1.177-4.227h-7.21Z" transform="translate(-115.615 -348.013)" fill="#818181"/>
          </g>
          <g id="Group_648" data-name="Group 648" transform="translate(17.095)">
            <path id="Path_2369" data-name="Path 2369" d="M138.335,352.24h7.438l.808-4.227h-7.209Z" transform="translate(-138.335 -348.013)" fill="#818181"/>
          </g>
          <g id="Group_649" data-name="Group 649" transform="translate(29.109)">
            <path id="Path_2370" data-name="Path 2370" d="M161.056,352.24h7.438l.439-4.227h-7.209Z" transform="translate(-161.056 -348.013)" fill="#818181"/>
          </g>
          <g id="Group_650" data-name="Group 650" transform="translate(41.124)">
            <path id="Path_2371" data-name="Path 2371" d="M191.285,348.013h-7.209l-.3,4.227h7.438Z" transform="translate(-183.777 -348.013)" fill="#818181"/>
          </g>
          <g id="Group_651" data-name="Group 651" transform="translate(53.068)">
            <path id="Path_2372" data-name="Path 2372" d="M206.435,352.24h7.438l-.3-4.227h-7.209Z" transform="translate(-206.364 -348.013)" fill="#818181"/>
          </g>
          <g id="Group_652" data-name="Group 652" transform="translate(64.714)">
            <path id="Path_2373" data-name="Path 2373" d="M228.827,352.24h7.438l-.667-4.227h-7.209Z" transform="translate(-228.387 -348.013)" fill="#818181"/>
          </g>
          <g id="Group_653" data-name="Group 653" transform="translate(76.36)">
            <path id="Path_2374" data-name="Path 2374" d="M251.219,352.24h7.437l-1.036-4.227h-7.209Z" transform="translate(-250.411 -348.013)" fill="#818181"/>
          </g>
          <g id="Group_654" data-name="Group 654" transform="translate(88.006)">
            <path id="Path_2375" data-name="Path 2375" d="M272.433,348.013l1.177,4.227h7.438l-1.405-4.227Z" transform="translate(-272.433 -348.013)" fill="#818181"/>
          </g>
          <g id="Group_655" data-name="Group 655" transform="translate(2.673 6.789)">
            <path id="Path_2376" data-name="Path 2376" d="M111.064,365.527h7.829l1.3-4.675h-7.576Z" transform="translate(-111.064 -360.852)" fill="#818181"/>
          </g>
          <g id="Group_656" data-name="Group 656" transform="translate(15.32 6.789)">
            <path id="Path_2377" data-name="Path 2377" d="M134.979,365.527h7.829l.894-4.675h-7.576Z" transform="translate(-134.979 -360.852)" fill="#818181"/>
          </g>
          <g id="Group_657" data-name="Group 657" transform="translate(27.966 6.789)">
            <path id="Path_2378" data-name="Path 2378" d="M158.894,365.527h7.829l.486-4.675h-7.576Z" transform="translate(-158.894 -360.852)" fill="#818181"/>
          </g>
          <g id="Group_658" data-name="Group 658" transform="translate(40.613 6.789)">
            <path id="Path_2379" data-name="Path 2379" d="M190.716,360.852H183.14l-.33,4.675h7.829Z" transform="translate(-182.81 -360.852)" fill="#818181"/>
          </g>
          <g id="Group_659" data-name="Group 659" transform="translate(53.181 6.789)">
            <path id="Path_2380" data-name="Path 2380" d="M206.656,365.527h7.829l-.33-4.675h-7.576Z" transform="translate(-206.578 -360.852)" fill="#818181"/>
          </g>
          <g id="Group_660" data-name="Group 660" transform="translate(65.42 6.789)">
            <path id="Path_2381" data-name="Path 2381" d="M230.207,365.527h7.829l-.738-4.675h-7.576Z" transform="translate(-229.721 -360.852)" fill="#818181"/>
          </g>
          <g id="Group_661" data-name="Group 661" transform="translate(77.658 6.789)">
            <path id="Path_2382" data-name="Path 2382" d="M253.759,365.527h7.829l-1.146-4.675h-7.576Z" transform="translate(-252.865 -360.852)" fill="#818181"/>
          </g>
          <g id="Group_662" data-name="Group 662" transform="translate(89.896 6.789)">
            <path id="Path_2383" data-name="Path 2383" d="M277.31,365.527h7.829l-1.554-4.675h-7.576Z" transform="translate(-276.008 -360.852)" fill="#818181"/>
          </g>
          <g id="Group_663" data-name="Group 663" transform="translate(0 14.306)">
            <path id="Path_2384" data-name="Path 2384" d="M106.008,380.266h8.263l1.448-5.2h-7.982Z" transform="translate(-106.008 -375.067)" fill="#818181"/>
          </g>
          <g id="Group_664" data-name="Group 664" transform="translate(13.348 14.306)">
            <path id="Path_2385" data-name="Path 2385" d="M131.251,380.266h8.263l.994-5.2h-7.982Z" transform="translate(-131.251 -375.067)" fill="#818181"/>
          </g>
          <g id="Group_665" data-name="Group 665" transform="translate(26.696 14.306)">
            <path id="Path_2386" data-name="Path 2386" d="M156.493,380.266h8.263l.54-5.2h-7.982Z" transform="translate(-156.493 -375.067)" fill="#818181"/>
          </g>
          <g id="Group_666" data-name="Group 666" transform="translate(40.044 14.306)">
            <path id="Path_2387" data-name="Path 2387" d="M182.1,375.067l-.367,5.2h21.611l-.367-5.2H182.1Z" transform="translate(-181.735 -375.067)" fill="#818181"/>
          </g>
          <g id="Group_667" data-name="Group 667" transform="translate(66.201 14.306)">
            <path id="Path_2388" data-name="Path 2388" d="M231.739,380.266H240l-.821-5.2H231.2Z" transform="translate(-231.198 -375.067)" fill="#818181"/>
          </g>
          <g id="Group_668" data-name="Group 668" transform="translate(79.095 14.306)">
            <path id="Path_2389" data-name="Path 2389" d="M256.577,380.266h8.263l-1.275-5.2h-7.982Z" transform="translate(-255.583 -375.067)" fill="#818181"/>
          </g>
          <g id="Group_669" data-name="Group 669" transform="translate(91.989 14.306)">
            <path id="Path_2390" data-name="Path 2390" d="M281.414,380.266h8.263l-1.729-5.2h-7.982Z" transform="translate(-279.966 -375.067)" fill="#818181"/>
          </g>
        </g>
        <path id="Path_2391" data-name="Path 2391" d="M200.162,417.234H158.57c-2.952,0-5.082-1.734-4.763-3.825h51.119C205.244,415.5,203.114,417.234,200.162,417.234Z" transform="translate(521.489 1356.562)" fill="#818181"/>
        <g id="Group_1500" data-name="Group 1500" transform="translate(-77 -6)">
          <rect id="Rectangle_175" data-name="Rectangle 175" width="42.113" height="14.568" transform="translate(765.888 1619.416) rotate(180)" fill="#f3dc19"/>
          <path id="Path_2394" data-name="Path 2394" d="M269.164,124.863v7.4l-9.091-7.4Z" transform="translate(492.402 1492.525)" fill="#f3dc19"/>
          <text id="http:_" data-name="http://" transform="translate(730.172 1614.217)" fill="#544b00" font-size="8" font-family="Montserrat-Regular, Montserrat"><tspan x="0" y="0">http://</tspan></text>
        </g>
        <path id="Path_2396" data-name="Path 2396" stroke="#2ecc71" d="M384.025,139.594h15.59V264.326a7.27,7.27,0,0,1-7.27,7.269H369.959a2.954,2.954,0,0,0-2.954,2.954h0a2.954,2.954,0,0,0,2.954,2.954H402.8a4.4,4.4,0,0,1,4.4,4.4h0a4.4,4.4,0,0,1-4.4,4.4l-68.645-1.4" fill="none" transform="translate(448.887 1485.583)" stroke-linecap="round" stroke-linejoin="round" stroke-width="1" stroke-dasharray="10 4"/>
        <rect id="Rectangle_177" data-name="Rectangle 177" width="49.309" height="14.454" transform="translate(777.859 1573.963)" fill="#f3dc19"/>
        <text id="HOSTING" transform="translate(782.544 1583.088)" fill="#544b00" font-size="7" font-family="Montserrat-Regular, Montserrat"><tspan x="0" y="0">HOSTING</tspan></text>
        <path id="Path_2397" data-name="Path 2397" d="M350.319,73.38l-2.458-3.1-2.458-3.1h9.833l-2.458,3.1Z" transform="translate(452.195 1519.707)" fill="#f3dc19"/>
        <g id="Group_1499" data-name="Group 1499">
          <g id="Group_631" data-name="Group 631" transform="translate(771.77 1657.314)">
            <g id="Group_630" data-name="Group 630" transform="translate(5.386)">
              <rect id="Rectangle_105" data-name="Rectangle 105" width="47.385" height="2.741" fill="#717171"/>
              <rect id="Rectangle_106" data-name="Rectangle 106" width="5.312" height="2.741" transform="translate(25.358)" fill="#717171"/>
              <rect id="Rectangle_107" data-name="Rectangle 107" width="5.312" height="2.741" transform="translate(35.18)" fill="#717171"/>
              <rect id="Rectangle_108" data-name="Rectangle 108" width="5.312" height="2.741" transform="translate(45.001)" fill="#717171"/>
            </g>
            <rect id="Rectangle_109" data-name="Rectangle 109" width="2.741" height="2.741" fill="#717171"/>
            <rect id="Rectangle_110" data-name="Rectangle 110" width="2.741" height="2.741" transform="translate(58.346)" fill="#717171"/>
          </g>
          <g id="Group_637" data-name="Group 637" transform="translate(771.77 1667.627)">
            <g id="Group_636" data-name="Group 636" transform="translate(5.386)">
              <rect id="Rectangle_123" data-name="Rectangle 123" width="47.193" height="2.741" fill="#717171"/>
              <rect id="Rectangle_124" data-name="Rectangle 124" width="17.204" height="2.741" transform="translate(13.466)" fill="#717171"/>
              <rect id="Rectangle_125" data-name="Rectangle 125" width="5.312" height="2.741" transform="translate(35.18)" fill="#717171"/>
              <rect id="Rectangle_126" data-name="Rectangle 126" width="5.312" height="2.741" transform="translate(45.001)" fill="#717171"/>
            </g>
            <rect id="Rectangle_127" data-name="Rectangle 127" width="2.741" height="2.741" fill="#717171"/>
            <rect id="Rectangle_128" data-name="Rectangle 128" width="2.741" height="2.741" transform="translate(58.346)" fill="#717171"/>
          </g>
          <g id="Group_639" data-name="Group 639" transform="translate(771.77 1645.514)">
            <g id="Group_638" data-name="Group 638" transform="translate(5.386 0)">
              <rect id="Rectangle_129" data-name="Rectangle 129" width="20.385" height="2.741" transform="translate(50.314 2.741) rotate(180)" fill="#717171"/>
              <rect id="Rectangle_130" data-name="Rectangle 130" width="5.313" height="2.741" transform="translate(24.956 2.741) rotate(180)" fill="#717171"/>
              <rect id="Rectangle_131" data-name="Rectangle 131" width="5.312" height="2.741" transform="translate(15.134 2.741) rotate(180)" fill="#717171"/>
              <rect id="Rectangle_132" data-name="Rectangle 132" width="42.312" height="2.741" transform="translate(42.312 2.741) rotate(180)" fill="#717171"/>
            </g>
            <rect id="Rectangle_133" data-name="Rectangle 133" width="2.741" height="2.741" transform="translate(61.087 2.741) rotate(180)" fill="#717171"/>
            <rect id="Rectangle_134" data-name="Rectangle 134" width="2.741" height="2.741" transform="translate(2.741 2.741) rotate(180)" fill="#717171"/>
          </g>
          <g id="Group_629" data-name="Group 629" transform="translate(771.77 1612.077)">
            <g id="Group_628" data-name="Group 628" transform="translate(5.386)">
              <rect id="Rectangle_99" data-name="Rectangle 99" width="50.385" height="2.741" fill="#717171"/>
              <rect id="Rectangle_100" data-name="Rectangle 100" width="5.312" height="2.741" transform="translate(25.358)" fill="#717171"/>
              <rect id="Rectangle_101" data-name="Rectangle 101" width="5.312" height="2.741" transform="translate(35.18)" fill="#717171"/>
              <rect id="Rectangle_102" data-name="Rectangle 102" width="5.312" height="2.741" transform="translate(45.001)" fill="#717171"/>
            </g>
            <rect id="Rectangle_103" data-name="Rectangle 103" width="2.741" height="2.741" fill="#717171"/>
            <rect id="Rectangle_104" data-name="Rectangle 104" width="2.741" height="2.741" transform="translate(58.346)" fill="#717171"/>
          </g>
          <g id="Group_641" data-name="Group 641" transform="translate(771.77 1633.906)">
            <g id="Group_640" data-name="Group 640" transform="translate(5.386 0)">
              <rect id="Rectangle_135" data-name="Rectangle 135" width="10.193" height="2.741" transform="translate(50.314 2.741) rotate(180)" fill="#717171"/>
              <rect id="Rectangle_136" data-name="Rectangle 136" width="17.204" height="2.741" transform="translate(36.847 2.741) rotate(180)" fill="#717171"/>
              <rect id="Rectangle_137" data-name="Rectangle 137" width="5.312" height="2.741" transform="translate(15.134 2.741) rotate(180)" fill="#717171"/>
              <rect id="Rectangle_138" data-name="Rectangle 138" width="50.312" height="2.741" transform="translate(50.312 2.741) rotate(180)" fill="#717171"/>
            </g>
            <rect id="Rectangle_139" data-name="Rectangle 139" width="2.741" height="2.741" transform="translate(61.087 2.741) rotate(180)" fill="#717171"/>
            <rect id="Rectangle_140" data-name="Rectangle 140" width="2.741" height="2.741" transform="translate(2.741 2.741) rotate(180)" fill="#717171"/>
          </g>
          <g id="Group_633" data-name="Group 633" transform="translate(771.77 1623.685)">
            <g id="Group_632" data-name="Group 632" transform="translate(5.386)">
              <rect id="Rectangle_111" data-name="Rectangle 111" width="50.193" height="2.741" fill="#717171"/>
              <rect id="Rectangle_112" data-name="Rectangle 112" width="17.204" height="2.741" transform="translate(13.466)" fill="#717171"/>
              <rect id="Rectangle_113" data-name="Rectangle 113" width="5.312" height="2.741" transform="translate(35.18)" fill="#717171"/>
              <rect id="Rectangle_114" data-name="Rectangle 114" width="5.312" height="2.741" transform="translate(45.001)" fill="#717171"/>
            </g>
            <rect id="Rectangle_115" data-name="Rectangle 115" width="2.741" height="2.741" fill="#717171"/>
            <rect id="Rectangle_116" data-name="Rectangle 116" width="2.741" height="2.741" transform="translate(58.346)" fill="#717171"/>
          </g>
          <g id="Group_635" data-name="Group 635" transform="translate(771.77 1689.213)">
            <g id="Group_634" data-name="Group 634" transform="translate(5.386)">
              <rect id="Rectangle_117" data-name="Rectangle 117" width="47.193" height="2.741" fill="#717171"/>
              <rect id="Rectangle_118" data-name="Rectangle 118" width="17.204" height="2.741" transform="translate(13.466)" fill="#717171"/>
              <rect id="Rectangle_119" data-name="Rectangle 119" width="5.312" height="2.741" transform="translate(35.18)" fill="#717171"/>
              <rect id="Rectangle_120" data-name="Rectangle 120" width="5.312" height="2.741" transform="translate(45.001)" fill="#717171"/>
            </g>
            <rect id="Rectangle_121" data-name="Rectangle 121" width="2.741" height="2.741" fill="#717171"/>
            <rect id="Rectangle_122" data-name="Rectangle 122" width="2.741" height="2.741" transform="translate(58.346)" fill="#717171"/>
          </g>
          <g id="Group_643" data-name="Group 643" transform="translate(771.77 1679.347)">
            <g id="Group_642" data-name="Group 642" transform="translate(5.386 0)">
              <rect id="Rectangle_141" data-name="Rectangle 141" width="10.193" height="2.741" transform="translate(50.314 2.741) rotate(180)" fill="#717171"/>
              <rect id="Rectangle_142" data-name="Rectangle 142" width="17.204" height="2.741" transform="translate(36.847 2.741) rotate(180)" fill="#717171"/>
              <rect id="Rectangle_143" data-name="Rectangle 143" width="5.312" height="2.741" transform="translate(15.134 2.741) rotate(180)" fill="#717171"/>
              <rect id="Rectangle_144" data-name="Rectangle 144" width="42.312" height="2.741" transform="translate(42.312 2.741) rotate(180)" fill="#717171"/>
            </g>
            <rect id="Rectangle_145" data-name="Rectangle 145" width="2.741" height="2.741" transform="translate(61.087 2.741) rotate(180)" fill="#717171"/>
            <rect id="Rectangle_146" data-name="Rectangle 146" width="2.741" height="2.741" transform="translate(2.741 2.741) rotate(180)" fill="#717171"/>
          </g>
        </g>
        <path id="Path_3252" data-name="Path 3252" d="M0,0H99.871V57.866H0Z" transform="translate(650.92 1664.734)" fill="#fff" stroke="#818181" stroke-width="1"/>
        <g id="Group_1494" data-name="Group 1494" transform="translate(-21)">
          <rect id="Rectangle_157" data-name="Rectangle 157" width="21.107" height="2.321" transform="translate(730.172 1669.614)" fill="#3498db"/>
          <rect id="Rectangle_158" data-name="Rectangle 158" width="5.632" height="2.321" transform="translate(754.391 1669.614)" fill="#f39c12"/>
          <rect id="Rectangle_159" data-name="Rectangle 159" width="5.632" height="2.321" transform="translate(726.303 1676.847)" fill="#e74c3c"/>
          <rect id="Rectangle_160" data-name="Rectangle 160" width="10.162" height="2.321" transform="translate(735.048 1676.847)" fill="#e74c3c"/>
          <rect id="Rectangle_161" data-name="Rectangle 161" width="21.107" height="2.321" transform="translate(730.172 1681.78)" fill="#e74c3c"/>
          <rect id="Rectangle_162" data-name="Rectangle 162" width="5.632" height="2.321" transform="translate(754.391 1681.78)" fill="#3498db"/>
          <rect id="Rectangle_163" data-name="Rectangle 163" width="21.107" height="2.321" transform="translate(730.172 1686.713)" fill="#e74c3c"/>
          <rect id="Rectangle_164" data-name="Rectangle 164" width="5.632" height="2.321" transform="translate(754.391 1686.713)" fill="#e74c3c"/>
          <rect id="Rectangle_165" data-name="Rectangle 165" width="21.107" height="2.321" transform="translate(730.172 1691.646)" fill="#3498db"/>
          <rect id="Rectangle_166" data-name="Rectangle 166" width="5.632" height="2.321" transform="translate(754.391 1691.646)" fill="#f39c12"/>
          <rect id="Rectangle_167" data-name="Rectangle 167" width="5.632" height="2.321" transform="translate(726.303 1698.88)" fill="#f39c12"/>
          <rect id="Rectangle_168" data-name="Rectangle 168" width="10.162" height="2.321" transform="translate(735.048 1698.88)" fill="#f39c12"/>
          <rect id="Rectangle_169" data-name="Rectangle 169" width="21.107" height="2.321" transform="translate(730.172 1703.813)" fill="#3498db"/>
          <rect id="Rectangle_170" data-name="Rectangle 170" width="5.632" height="2.321" transform="translate(754.391 1703.813)" fill="#f39c12"/>
          <rect id="Rectangle_171" data-name="Rectangle 171" width="21.107" height="2.321" transform="translate(730.172 1708.746)" fill="#3498db"/>
          <rect id="Rectangle_172" data-name="Rectangle 172" width="5.632" height="2.321" transform="translate(754.391 1708.746)" fill="#f39c12"/>
          <rect id="Rectangle_173" data-name="Rectangle 173" width="21.107" height="2.321" transform="translate(730.172 1713.679)" fill="#3498db"/>
          <rect id="Rectangle_174" data-name="Rectangle 174" width="5.632" height="2.321" transform="translate(754.391 1713.679)" fill="#e74c3c"/>
        </g>
        <g id="Group_1495" data-name="Group 1495" transform="translate(-106)">
          <rect id="Rectangle_176" data-name="Rectangle 176" width="34.039" height="18.985" transform="translate(689.239 1693.991)" fill="#f3dc19"/>
          <path id="Path_2395" data-name="Path 2395" d="M167.758,301.969v7.4l-9.091-7.4Z" transform="translate(545.908 1409.072)" fill="#f3dc19"/>
          <text id="_" data-name="&lt; / &gt;" transform="translate(695.082 1707.181)" fill="#4b4300" font-size="11" font-family="Montserrat-Regular, Montserrat"><tspan x="0" y="0">&lt; / &gt;</tspan></text>
        </g>
      </g>
      <g id="Rectangle_378" data-name="Rectangle 378" transform="translate(208 953)" fill="none" stroke="#818181" stroke-width="1">
        <rect width="42" height="42" rx="6" stroke="none"/>
        <rect x="0.5" y="0.5" width="41" height="41" rx="5.5" fill="none"/>
      </g>
    </g>
  </g>
</svg>
