<?xml version="1.0"?>
<svg xmlns="http://www.w3.org/2000/svg" width="244.235" height="143.848" viewBox="0 0 244.235 143.848">
  <g id="Group_1511" data-name="Group 1511" transform="translate(-1074 -1736.27)">
    <g id="Group_1507" data-name="Group 1507">
      <g id="Group_1479" data-name="Group 1479" transform="translate(334.054 -305.985)">
        <g id="Group_1510" data-name="Group 1510">
          <path id="Path_3266" data-name="Path 3266" d="M0,0H226.786" transform="translate(756.451 2179.749)" fill="none" stroke="#818181" stroke-linecap="round" stroke-width="1.887"/>
          <path id="Path_3235" data-name="Path 3235" d="M0,0H199.654V124.349H0Z" transform="translate(766.148 2054.76)" fill="#fff" stroke="#818181" stroke-width="1"/>
          <rect id="Rectangle_365" data-name="Rectangle 365" width="50.791" height="124.349" transform="translate(766.148 2054.76)" fill="none" stroke="#818181" stroke-width="1"/>
          <path id="Path_3234" data-name="Path 3234" d="M7.01,0H192.644a7.01,7.01,0,0,1,7.01,7.01v5H0v-5A7.01,7.01,0,0,1,7.01,0Z" transform="translate(766.148 2042.755)" fill="#fff" stroke="#818181" stroke-width="1"/>
          <g id="Group_1223" data-name="Group 1223" transform="translate(777.144 2046.333)">
            <path id="Path_2924" data-name="Path 2924" d="M125.961,168.562a2.424,2.424,0,1,1-2.423-2.424A2.424,2.424,0,0,1,125.961,168.562Z" transform="translate(-121.114 -166.138)" fill="#e74c3c"/>
            <path id="Path_2925" data-name="Path 2925" d="M136.609,168.562a2.424,2.424,0,1,1-2.423-2.424A2.424,2.424,0,0,1,136.609,168.562Z" transform="translate(-124.58 -166.138)" fill="#2ecc71"/>
            <path id="Path_2926" data-name="Path 2926" d="M147.257,168.562a2.424,2.424,0,1,1-2.423-2.424A2.423,2.423,0,0,1,147.257,168.562Z" transform="translate(-128.047 -166.138)" fill="#f3dc19"/>
          </g>
          <g id="Group_1225" data-name="Group 1225" transform="translate(772.529 2065.36)">
            <circle id="Ellipse_34" data-name="Ellipse 34" cx="15.829" cy="15.829" r="15.829" transform="translate(0 30.828) rotate(-76.852)" fill="#818181"/>
            <g id="Group_1224" data-name="Group 1224" transform="translate(9.804 10.709)">
              <path id="Path_2927" data-name="Path 2927" d="M144.737,214.451a4.225,4.225,0,1,1-4.225-4.225A4.226,4.226,0,0,1,144.737,214.451Z" transform="translate(-131.242 -210.226)" fill="#fff"/>
              <path id="Path_2928" data-name="Path 2928" d="M128.808,230.434l1.517-2.823a5,5,0,0,1,4.4-2.63h6.15a4.994,4.994,0,0,1,4.139,2.2l2.2,3.252Z" transform="translate(-128.808 -215.03)" fill="#fff"/>
            </g>
          </g>
          <path id="Path_3253" data-name="Path 3253" d="M0,0H48.131V47.392H0Z" transform="translate(908.888 2068.545)" fill="none" stroke="#818181" stroke-width="1"/>
          <path id="Path_3254" data-name="Path 3254" d="M0,0H48.131V42.255H0Z" transform="translate(908.888 2124.669)" fill="none" stroke="#818181" stroke-width="1"/>
          <g id="Group_1229" data-name="Group 1229" transform="translate(821.68 2068.344)">
            <g id="Group_1226" data-name="Group 1226" transform="translate(0 0)">
              <circle id="Ellipse_35" data-name="Ellipse 35" cx="8.689" cy="8.689" r="8.689" transform="translate(0 7.368) rotate(-25.086)" fill="#818181"/>
              <line id="Line_12" data-name="Line 12" x2="32.584" transform="translate(26.75 5.272)" fill="none" stroke="#d5d5d5" stroke-linecap="round" stroke-linejoin="round" stroke-width="4.463"/>
              <line id="Line_13" data-name="Line 13" x2="16.292" transform="translate(26.75 11.895)" fill="none" stroke="#d5d5d5" stroke-linecap="round" stroke-linejoin="round" stroke-width="4.463"/>
              <line id="Line_14" data-name="Line 14" x2="32.584" transform="translate(26.75 18.517)" fill="none" stroke="#d5d5d5" stroke-linecap="round" stroke-linejoin="round" stroke-width="4.463"/>
            </g>
            <g id="Group_1227" data-name="Group 1227" transform="translate(1.522 35.78)">
              <circle id="Ellipse_36" data-name="Ellipse 36" cx="8.689" cy="8.689" r="8.689" transform="translate(0 17.129) rotate(-80.282)" fill="#818181"/>
              <line id="Line_15" data-name="Line 15" x2="32.584" transform="translate(25.227 3.75)" fill="none" stroke="#d5d5d5" stroke-linecap="round" stroke-linejoin="round" stroke-width="4.463"/>
              <line id="Line_16" data-name="Line 16" x2="16.292" transform="translate(25.227 10.373)" fill="none" stroke="#d5d5d5" stroke-linecap="round" stroke-linejoin="round" stroke-width="4.463"/>
              <line id="Line_17" data-name="Line 17" x2="32.584" transform="translate(25.227 16.995)" fill="none" stroke="#d5d5d5" stroke-linecap="round" stroke-linejoin="round" stroke-width="4.463"/>
            </g>
            <g id="Group_1228" data-name="Group 1228" transform="translate(2.864 71.38)">
              <circle id="Ellipse_37" data-name="Ellipse 37" cx="8.689" cy="8.689" r="8.689" fill="#818181"/>
              <line id="Line_18" data-name="Line 18" x2="32.584" transform="translate(23.885 2.408)" fill="none" stroke="#d5d5d5" stroke-linecap="round" stroke-linejoin="round" stroke-width="4.463"/>
              <line id="Line_19" data-name="Line 19" x2="16.292" transform="translate(23.885 9.031)" fill="none" stroke="#d5d5d5" stroke-linecap="round" stroke-linejoin="round" stroke-width="4.463"/>
              <line id="Line_20" data-name="Line 20" x2="32.584" transform="translate(23.885 15.653)" fill="none" stroke="#d5d5d5" stroke-linecap="round" stroke-linejoin="round" stroke-width="4.463"/>
            </g>
          </g>
          <path id="Path_2929" data-name="Path 2929" d="M149.926,321.329H118.268a1.505,1.505,0,1,1,0-3.01h31.658a1.505,1.505,0,0,1,0,3.01Z" transform="translate(657.446 1830.654)" fill="#d5d5d5"/>
          <path id="Path_2930" data-name="Path 2930" d="M149.926,332.717H118.268a1.5,1.5,0,1,1,0-3.009h31.658a1.5,1.5,0,1,1,0,3.009Z" transform="translate(657.446 1826.947)" fill="#d5d5d5"/>
          <g id="Group_1253" data-name="Group 1253" transform="translate(759.947 2093.767)">
            <path id="Path_2332" data-name="Path 2332" d="M362.7,290.68l1.361,2.736-3.326,1.36-.355-3.15Z" transform="translate(-344.002 -274.397)" fill="#ffb9a3"/>
            <path id="Path_2333" data-name="Path 2333" d="M361.914,275.929c7.543,3.284,4.453,11.241-.139,10.307-2.235-.455-3.366-7.65-3.366-7.65Z" transform="translate(-345.224 -268.553)" fill="#ffb9a3"/>
            <path id="Path_2334" data-name="Path 2334" d="M370.258,273.017a3.957,3.957,0,0,1,.891-1.281,1.141,1.141,0,0,1,1.44-.075c.507.472.21,1.355-.3,1.819.443.054.968-.252,1.293.052.247.231.161.639.02.946a4.2,4.2,0,0,1-1.546,1.772c.383.217.826.638.6,1.013-.063.1-.17.176-.232.28-.146.244,0,.554.143.8q.357.589.769,1.142a.673.673,0,0,0-1.081.187,1.15,1.15,0,0,0,.269,1.215,1.205,1.205,0,0,0,.609.388c.207.048,1.121,2.874.408,3.427-.881.685-3.879.091-4.312-.683a1.918,1.918,0,0,1-1.7.7,1.043,1.043,0,0,1-.768-1.441,1.764,1.764,0,0,1-2.128-2.554c-.37-.112-.444-.612-.35-.986a2.279,2.279,0,0,1,1.561-1.6.773.773,0,0,1-.7-.76,1.589,1.589,0,0,1,.421-1.037,3.533,3.533,0,0,1,2.593-1.239C369.208,274.963,369.79,273.886,370.258,273.017Z" transform="translate(-356.074 -266.773)" fill="#f3dc19"/>
            <path id="Path_2335" data-name="Path 2335" d="M354.608,407.769s4.413,2.119,5.005,2.779c0,0-8.683.391-9.363-.019s1.391-2.766,1.391-2.766Z" transform="translate(-333.355 -320.782)" fill="#0c2340"/>
            <path id="Path_2336" data-name="Path 2336" d="M383.27,403.4s3.879,2.987,4.322,3.756c0,0-9.156-1.36-9.156-1.958s1.933-2.418,1.933-2.418Z" transform="translate(-378.435 -318.807)" fill="#0c2340"/>
            <path id="Path_2337" data-name="Path 2337" d="M379.651,338.352c.163.9,6.2,24.752-11.083,39.053l-5.008-1.148a35.52,35.52,0,0,0,8.575-15.3c2.6-9.3.534-10.215-1.024-15.339a18,18,0,0,1-.441-9.788Z" transform="translate(-362.666 -292.282)" fill="#f39c12"/>
            <path id="Path_2338" data-name="Path 2338" d="M356.982,339.542c2.741,6.55,7.446,28.873-2.809,41.442l-5.122-.011s4.034-4.421,4.485-14.679-2.158-14.761-4-18.146A59.609,59.609,0,0,1,346,339.011Z" transform="translate(-331.733 -293.544)" fill="#f39c12"/>
            <path id="Path_2339" data-name="Path 2339" d="M354.008,272.639c1.36,4.8,1.808,13.66-5.007,17.23l-4.561-1.112s8.223-4.311,6.461-15.207Z" transform="translate(-325.145 -267.249)" fill="#3498db"/>
            <path id="Path_2340" data-name="Path 2340" d="M359.311,268.287l-3.541-.437s.426,14.867-16.745,16.12c-13.107.956-14.137,25.553-14.137,25.553,4.226,2.845,11.319,3.707,20.406,3.055,0,0-.581-17.548.862-22.352C346.156,290.226,360.422,285.737,359.311,268.287Z" transform="translate(-317.883 -265.352)" fill="#3498db"/>
            <path id="Path_2341" data-name="Path 2341" d="M325.123,263.949c.6.694-1.9,1.575-4.329,2.7l-3.107-.383a12.233,12.233,0,0,1,0-1.267c.039-.647.363-1.016.732-.461a2.4,2.4,0,0,0,2.68.237C321.842,264.266,324.524,263.255,325.123,263.949Z" transform="translate(-279.367 -263.713)" fill="#ffb9a3"/>
            <path id="Path_2342" data-name="Path 2342" d="M348.6,271.32c1.138-1.12.836-1.051.836-1.051l-3.473.785s-.764-1.694-1.411-1.742.487,1.168.228,1.618.712,1.3.712,1.3Z" transform="translate(-319.742 -265.931)" fill="#ffb9a3"/>
          </g>
        </g>
      </g>
    </g>
    <ellipse id="Ellipse_50" data-name="Ellipse 50" cx="37" cy="2" rx="37" ry="2" transform="translate(1074 1876.118)" fill="#020303" opacity="0.07"/>
  </g>
</svg>
